col\humanos\cidenet\dto\SalaPuestoDTO$SalaPuestoDTOBuilder.class
col\humanos\cidenet\enums\EstadoSalaSillaEnum.class
col\humanos\cidenet\dto\SalaDTO$SalaDTOBuilder.class
col\humanos\cidenet\enums\SucursalCiudadEnum.class
col\humanos\cidenet\dto\SalaPuestoDTO.class
col\humanos\cidenet\dto\SalaDTO.class
col\humanos\cidenet\enums\TipoSalaEnum.class
